MMPS
…
SPC Instructions use mandatory language .

The EU Regulation uses a threshold of EUR 1,000 .

    work (221)

First , the G20 reforms are working .

The IASB is working closely with the BCBS on provisions .

5.2 Most common verbs by institution

The table below presents the most common verbs where different institutions are the subject

# A tibble: 30 × 6
   IO    `1st Verb` `2nd Verb` `3rd Verb` `4th Verb`     `5th Verb`
   <chr> <chr>      <chr>      <chr>      <chr>          <chr>     
 1 EU    be         have       provide    control --> be require   
 2 IOSCO publish    be         issue      establish      consider  
 3 BCBS  be         issue      note       identify       publish   
 4 WB    be         provide    launch     develop        continue  
 5 IMF   be         continue   assess     provide        attend    
 6 FSB   ask        request    publish    iai            be        
 7 OECD  rate       be         provide    launch         develop   
 8 CPSS  be         publish    have       establish      issue     
 9 UN    be         include    adopt      dollar         provide   
10 G20   agree      REPORT     endorse    be             ask       
# … with 20 more rows
…
